<svg width="20" height="17" viewBox="0 0 20 17" fill="none" xmlns="http://www.w3.org/2000/svg">
<path d="M19.9435 1.99452C19.2955 2.27803 18.607 2.44004 17.9185 2.56154C18.2425 2.52104 18.7285 1.91352 18.931 1.67051C19.2145 1.306 19.4575 0.90098 19.6195 0.455462C19.6195 0.414961 19.66 0.374459 19.6195 0.333958C19.579 0.333958 19.5385 0.333958 19.498 0.333958C18.7285 0.738973 17.959 1.02248 17.1084 1.26549C17.0274 1.26549 16.9869 1.26549 16.9464 1.22499C16.8654 1.14399 16.8249 1.06299 16.7439 1.02248C16.3794 0.738973 16.0149 0.495964 15.5694 0.293456C15.0024 0.0504468 14.3948 -0.0305563 13.7873 0.0099453C13.1798 0.0504469 12.6128 0.212453 12.0862 0.495964C11.5597 0.779475 11.0737 1.14399 10.7092 1.63001C10.3042 2.11603 10.0207 2.68305 9.89916 3.25007C9.77766 3.81709 9.77766 4.38411 9.85866 4.99164C9.85866 5.07264 9.85865 5.11314 9.77765 5.07264C6.49702 4.58662 3.74292 3.41208 1.51533 0.860478C1.43433 0.738973 1.35333 0.738973 1.27232 0.860478C0.300284 2.31853 0.786311 4.66763 2.00136 5.80167C2.16336 5.96368 2.32537 6.12568 2.52787 6.24719C2.44687 6.24719 1.63684 6.16618 0.948314 5.80167C0.867311 5.72067 0.786311 5.76117 0.786311 5.88267C0.786311 6.04468 0.786301 6.16618 0.826802 6.36869C1.02931 7.82675 2.04186 9.2038 3.41891 9.73032C3.58092 9.81132 3.78342 9.85183 3.94543 9.89233C3.62142 9.97333 3.29741 10.0138 2.36587 9.93283C2.24436 9.89233 2.20386 9.97333 2.24436 10.0948C2.93288 11.9579 4.43144 12.5249 5.52499 12.8489C5.68699 12.8894 5.8085 12.8894 5.97051 12.9299C5.97051 12.9299 5.9705 12.9299 5.93 12.9704C5.56549 13.5375 4.26944 13.9425 3.70242 14.145C2.60887 14.5095 1.43433 14.712 0.300287 14.5905C0.097779 14.55 0.0977802 14.55 0.0167771 14.5905C-0.0237245 14.631 0.0167734 14.6715 0.0572749 14.712C0.300284 14.874 0.543299 14.9955 0.745807 15.117C1.47483 15.4815 2.24437 15.8056 3.0139 16.0081C7.10456 17.1421 11.7217 16.2916 14.7594 13.254C17.1894 10.8644 17.9995 7.54324 17.9995 4.26261C17.9995 4.1411 18.1615 4.0601 18.2425 3.9791C18.85 3.49308 19.3765 2.92606 19.822 2.31853C19.9436 2.19703 19.903 2.03502 19.903 1.99452C20.0245 1.95402 20.0246 1.95402 19.9435 1.99452Z" fill="#3EC2B9"/>
<path fill-rule="evenodd" clip-rule="evenodd" d="M6.61865 16.4535C6.61865 16.413 6.98317 16.4535 6.61865 16.4535C6.61865 16.4535 6.65915 16.4535 6.61865 16.4535Z" fill="#3EC2B9"/>
</svg>
